^D:\UE4\ПРОЕКТЫ НА ПЛЮСАХ\15,4\15.4\15.4.CPP
D:\UE4\Проекты на плюсах\15,4\15.4\DEBUG\VC142.PDB
D:\UE4\Проекты на плюсах\15,4\15.4\DEBUG\VC142.IDB
D:\UE4\Проекты на плюсах\15,4\15.4\DEBUG\15.4.OBJ
